{
    "help": "https://data.gov.sg/api/3/action/help_show?name=datastore_search",
    "success": true,
    "result": {
        "resource_id": "a807b7ab-6cad-4aa6-87d0-e283a7353a0f",
        "fields": [
            {
                "type": "int4",
                "id": "_id"
            },
            {
                "type": "text",
                "id": "quarter"
            },
            {
                "type": "numeric",
                "id": "volume_of_mobile_data"
            }
        ],
        "records": [
            {
                "volume_of_mobile_data": "0.000384",
                "quarter": "2004-Q3",
                "_id": 1
            },
            {
                "volume_of_mobile_data": "0.000543",
                "quarter": "2004-Q4",
                "_id": 2
            },
            {
                "volume_of_mobile_data": "0.00062",
                "quarter": "2005-Q1",
                "_id": 3
            },
            {
                "volume_of_mobile_data": "0.000634",
                "quarter": "2005-Q2",
                "_id": 4
            },
            {
                "volume_of_mobile_data": "0.000718",
                "quarter": "2005-Q3",
                "_id": 5
            },
            {
                "volume_of_mobile_data": "0.000801",
                "quarter": "2005-Q4",
                "_id": 6
            },
            {
                "volume_of_mobile_data": "0.00089",
                "quarter": "2006-Q1",
                "_id": 7
            },
            {
                "volume_of_mobile_data": "0.001189",
                "quarter": "2006-Q2",
                "_id": 8
            },
            {
                "volume_of_mobile_data": "0.001735",
                "quarter": "2006-Q3",
                "_id": 9
            },
            {
                "volume_of_mobile_data": "0.003323",
                "quarter": "2006-Q4",
                "_id": 10
            },
            {
                "volume_of_mobile_data": "0.012635",
                "quarter": "2007-Q1",
                "_id": 11
            },
            {
                "volume_of_mobile_data": "0.029992",
                "quarter": "2007-Q2",
                "_id": 12
            },
            {
                "volume_of_mobile_data": "0.053584",
                "quarter": "2007-Q3",
                "_id": 13
            },
            {
                "volume_of_mobile_data": "0.100934",
                "quarter": "2007-Q4",
                "_id": 14
            },
            {
                "volume_of_mobile_data": "0.171586",
                "quarter": "2008-Q1",
                "_id": 15
            },
            {
                "volume_of_mobile_data": "0.248899",
                "quarter": "2008-Q2",
                "_id": 16
            },
            {
                "volume_of_mobile_data": "0.439655",
                "quarter": "2008-Q3",
                "_id": 17
            },
            {
                "volume_of_mobile_data": "0.683579",
                "quarter": "2008-Q4",
                "_id": 18
            },
            {
                "volume_of_mobile_data": "1.066517",
                "quarter": "2009-Q1",
                "_id": 19
            },
            {
                "volume_of_mobile_data": "1.357248",
                "quarter": "2009-Q2",
                "_id": 20
            }
        ],
        "_links": {
            "start": "/api/action/datastore_search?resource_id=a807b7ab-6cad-4aa6-87d0-e283a7353a0f&limit=20",
            "next": "/api/action/datastore_search?resource_id=a807b7ab-6cad-4aa6-87d0-e283a7353a0f&limit=20&offset=20"
        },
        "offset": 0,
        "limit": 20,
        "total": 59
    }
}
