{
    "help": "https://data.gov.sg/api/3/action/help_show?name=datastore_search",
    "success": true,
    "result": {
        "resource_id": "a807b7ab-6cad-4aa6-87d0-e283a7353a0f",
        "fields": [
            {
                "type": "int4",
                "id": "_id"
            },
            {
                "type": "text",
                "id": "quarter"
            },
            {
                "type": "numeric",
                "id": "volume_of_mobile_data"
            }
        ],
        "records": [
            {
                "volume_of_mobile_data": "1.695704",
                "quarter": "2009-Q3",
                "_id": 21
            },
            {
                "volume_of_mobile_data": "2.109516",
                "quarter": "2009-Q4",
                "_id": 22
            },
            {
                "volume_of_mobile_data": "2.3363",
                "quarter": "2010-Q1",
                "_id": 23
            },
            {
                "volume_of_mobile_data": "2.777817",
                "quarter": "2010-Q2",
                "_id": 24
            },
            {
                "volume_of_mobile_data": "3.002091",
                "quarter": "2010-Q3",
                "_id": 25
            },
            {
                "volume_of_mobile_data": "3.336984",
                "quarter": "2010-Q4",
                "_id": 26
            },
            {
                "volume_of_mobile_data": "3.466228",
                "quarter": "2011-Q1",
                "_id": 27
            },
            {
                "volume_of_mobile_data": "3.380723",
                "quarter": "2011-Q2",
                "_id": 28
            },
            {
                "volume_of_mobile_data": "3.713792",
                "quarter": "2011-Q3",
                "_id": 29
            },
            {
                "volume_of_mobile_data": "4.07796",
                "quarter": "2011-Q4",
                "_id": 30
            },
            {
                "volume_of_mobile_data": "4.679465",
                "quarter": "2012-Q1",
                "_id": 31
            },
            {
                "volume_of_mobile_data": "5.331562",
                "quarter": "2012-Q2",
                "_id": 32
            },
            {
                "volume_of_mobile_data": "5.614201",
                "quarter": "2012-Q3",
                "_id": 33
            },
            {
                "volume_of_mobile_data": "5.903005",
                "quarter": "2012-Q4",
                "_id": 34
            },
            {
                "volume_of_mobile_data": "5.807872",
                "quarter": "2013-Q1",
                "_id": 35
            },
            {
                "volume_of_mobile_data": "7.053642",
                "quarter": "2013-Q2",
                "_id": 36
            },
            {
                "volume_of_mobile_data": "7.970536",
                "quarter": "2013-Q3",
                "_id": 37
            },
            {
                "volume_of_mobile_data": "7.664802",
                "quarter": "2013-Q4",
                "_id": 38
            },
            {
                "volume_of_mobile_data": "7.73018",
                "quarter": "2014-Q1",
                "_id": 39
            },
            {
                "volume_of_mobile_data": "7.907798",
                "quarter": "2014-Q2",
                "_id": 40
            }
        ],
        "_links": {
            "start": "/api/action/datastore_search?resource_id=a807b7ab-6cad-4aa6-87d0-e283a7353a0f&limit=20",
            "next": "/api/action/datastore_search?resource_id=a807b7ab-6cad-4aa6-87d0-e283a7353a0f&limit=20&offset=40"
        },
        "offset": 20,
        "limit": 20,
        "total": 59
    }
}
