{
    "help": "https://data.gov.sg/api/3/action/help_show?name=datastore_search",
    "success": true,
    "result": {
        "resource_id": "a807b7ab-6cad-4aa6-87d0-e283a7353a0f",
        "fields": [
            {
                "type": "int4",
                "id": "_id"
            },
            {
                "type": "text",
                "id": "quarter"
            },
            {
                "type": "numeric",
                "id": "volume_of_mobile_data"
            }
        ],
        "records": [
            {
                "volume_of_mobile_data": "8.629095",
                "quarter": "2014-Q3",
                "_id": 41
            },
            {
                "volume_of_mobile_data": "9.327967",
                "quarter": "2014-Q4",
                "_id": 42
            },
            {
                "volume_of_mobile_data": "9.687363",
                "quarter": "2015-Q1",
                "_id": 43
            },
            {
                "volume_of_mobile_data": "9.98677",
                "quarter": "2015-Q2",
                "_id": 44
            },
            {
                "volume_of_mobile_data": "10.902194",
                "quarter": "2015-Q3",
                "_id": 45
            },
            {
                "volume_of_mobile_data": "10.677166",
                "quarter": "2015-Q4",
                "_id": 46
            },
            {
                "volume_of_mobile_data": "10.96733",
                "quarter": "2016-Q1",
                "_id": 47
            },
            {
                "volume_of_mobile_data": "11.38734",
                "quarter": "2016-Q2",
                "_id": 48
            },
            {
                "volume_of_mobile_data": "12.14232",
                "quarter": "2016-Q3",
                "_id": 49
            },
            {
                "volume_of_mobile_data": "12.86429",
                "quarter": "2016-Q4",
                "_id": 50
            },
            {
                "volume_of_mobile_data": "13.29757",
                "quarter": "2017-Q1",
                "_id": 51
            },
            {
                "volume_of_mobile_data": "14.54179",
                "quarter": "2017-Q2",
                "_id": 52
            },
            {
                "volume_of_mobile_data": "14.88463",
                "quarter": "2017-Q3",
                "_id": 53
            },
            {
                "volume_of_mobile_data": "15.77653",
                "quarter": "2017-Q4",
                "_id": 54
            },
            {
                "volume_of_mobile_data": "16.47121",
                "quarter": "2018-Q1",
                "_id": 55
            },
            {
                "volume_of_mobile_data": "18.47368",
                "quarter": "2018-Q2",
                "_id": 56
            },
            {
                "volume_of_mobile_data": "19.97554729",
                "quarter": "2018-Q3",
                "_id": 57
            },
            {
                "volume_of_mobile_data": "20.43921113",
                "quarter": "2018-Q4",
                "_id": 58
            },
            {
                "volume_of_mobile_data": "20.53504752",
                "quarter": "2019-Q1",
                "_id": 59
            }
        ],
        "_links": {
            "start": "/api/action/datastore_search?resource_id=a807b7ab-6cad-4aa6-87d0-e283a7353a0f&limit=20",
            "prev": "/api/action/datastore_search?resource_id=a807b7ab-6cad-4aa6-87d0-e283a7353a0f&limit=20&offset=20",
            "next": "/api/action/datastore_search?resource_id=a807b7ab-6cad-4aa6-87d0-e283a7353a0f&limit=20&offset=60"
        },
        "offset": 40,
        "limit": 20,
        "total": 59
    }
}
